<?xml version="1.0" standalone="no"?>
<!DOCTYPE svg PUBLIC "-//W3C//DTD SVG 1.1//EN" "http://www.w3.org/Graphics/SVG/1.1/DTD/svg11.dtd">
<svg xmlns="http://www.w3.org/2000/svg">
<metadata>Copyright (C) 2018 by original authors @ fontello.com</metadata>
<defs>
<font id="solspace-freeform-craft" horiz-adv-x="1000" >
<font-face font-family="solspace-freeform-craft" font-weight="400" font-stretch="normal" units-per-em="1000" ascent="850" descent="-150" />
<missing-glyph horiz-adv-x="1000" />
<glyph glyph-name="email" unicode="&#xe800;" d="M929 11v428q-18-20-39-36-149-115-238-189-28-24-46-37t-48-28-57-13h-2q-26 0-57 13t-48 28-46 37q-88 74-238 189-21 16-39 36v-428q0-7 6-13t12-5h822q7 0 12 5t6 13z m0 586v14t-1 7-1 7-3 5-5 4-8 2h-822q-7 0-12-6t-6-12q0-94 83-159 107-84 223-176 4-3 20-17t25-21 25-17 28-16 24-5h2q11 0 24 5t28 16 25 17 25 21 20 17q116 92 224 176 30 24 56 65t26 73z m71 21v-607q0-37-26-63t-63-27h-822q-36 0-63 27t-26 63v607q0 37 26 63t63 26h822q37 0 63-26t26-63z" horiz-adv-x="1000" />

<glyph glyph-name="hidden" unicode="&#xe801;" d="M310 105l43 79q-48 35-76 88t-27 114q0 67 34 125-128-65-213-197 94-144 239-209z m217 424q0 11-8 19t-19 7q-70 0-120-50t-50-119q0-11 8-19t19-8 19 8 8 19q0 48 34 82t82 34q11 0 19 8t8 19z m202 106q0-4 0-5-59-105-176-316t-176-316l-28-50q-5-9-15-9-7 0-75 39-9 6-9 16 0 7 25 49-80 36-147 96t-117 137q-11 17-11 38t11 39q86 131 212 207t277 76q50 0 100-10l31 54q5 9 15 9 3 0 10-3t18-9 18-10 18-10 10-7q9-5 9-15z m21-249q0-78-44-142t-117-91l157 280q4-25 4-47z m250-72q0-19-11-38-22-36-61-81-84-96-194-149t-234-53l41 74q119 10 219 76t169 171q-65 100-158 164l35 63q53-36 102-85t81-103q11-19 11-39z" horiz-adv-x="1000" />

<glyph glyph-name="file" unicode="&#xe802;" d="M784 77q0-65-45-109t-109-44q-75 0-131 55l-434 434q-63 64-63 151 0 89 62 150t150 62q88 0 152-63l338-338q5-5 5-12 0-9-17-26t-26-17q-7 0-12 5l-339 339q-44 43-101 43-59 0-100-42t-40-101q0-58 42-101l433-433q35-36 81-36 36 0 59 24t24 59q0 46-35 81l-325 324q-14 14-33 14-16 0-27-11t-11-27q0-18 14-33l229-228q6-6 6-13 0-9-18-26t-26-17q-6 0-12 5l-229 229q-35 34-35 83 0 46 32 78t77 32q49 0 84-35l324-325q56-54 56-131z" horiz-adv-x="785.7" />

<glyph glyph-name="checkbox" unicode="&#xe803;" d="M786 331v-177q0-67-47-114t-114-47h-464q-67 0-114 47t-47 114v464q0 66 47 113t114 48h464q35 0 65-14 9-4 10-13 2-10-5-16l-27-28q-6-5-13-5-1 0-5 1-13 3-25 3h-464q-37 0-63-26t-27-63v-464q0-37 27-63t63-27h464q37 0 63 27t26 63v141q0 8 5 13l36 35q6 6 13 6 3 0 7-2 11-4 11-16z m129 273l-455-454q-13-14-31-14t-32 14l-240 240q-14 13-14 31t14 32l61 62q14 13 32 13t32-13l147-147 361 361q13 13 31 13t32-13l62-61q13-14 13-32t-13-32z" horiz-adv-x="928.6" />

<glyph glyph-name="select" unicode="&#xe804;" d="M939 399l-414-413q-10-11-25-11t-25 11l-414 413q-11 11-11 26t11 25l93 92q10 11 25 11t25-11l296-296 296 296q11 11 25 11t26-11l92-92q11-11 11-25t-11-26z" horiz-adv-x="1000" />

<glyph glyph-name="submit" unicode="&#xe805;" d="M772 333l-741-412q-13-7-22-2t-9 20v822q0 14 9 20t22-2l741-412q13-7 13-17t-13-17z" horiz-adv-x="785.7" />

<glyph glyph-name="mailinglist" unicode="&#xe806;" d="M929 493q29 0 50-21t21-51-21-50-50-21v-214q0-29-22-50t-50-22q-233 194-453 212-32-10-51-36t-17-57 22-51q-11-19-13-37t4-32 19-31 26-28 35-28q-17-32-63-46t-94-7-73 31q-4 13-17 49t-18 53-12 50-9 56 2 55 12 62h-68q-36 0-63 26t-26 63v107q0 37 26 63t63 26h268q243 0 500 215 29 0 50-22t22-50v-214z m-72-337v532q-220-168-428-191v-151q210-23 428-190z" horiz-adv-x="1000" />

<glyph glyph-name="flash" unicode="&#xe807;" d="M494 534q10-11 4-24l-302-646q-7-14-23-14-2 0-8 1-9 3-14 11t-3 16l110 451-226-56q-2-1-7-1-10 0-17 7-10 8-7 21l112 461q2 8 9 13t15 5h183q11 0 18-7t7-17q0-4-2-10l-96-258 221 54q5 2 7 2 11 0 19-9z" horiz-adv-x="500" />

<glyph glyph-name="textarea" unicode="&#xe808;" d="M496 189l64 65-85 85-64-65v-31h53v-54h32z m245 402q-9 9-18 0l-196-196q-9-9 0-18t18 0l196 196q9 9 0 18z m45-331v-106q0-67-47-114t-114-47h-464q-67 0-114 47t-47 114v464q0 66 47 113t114 48h464q35 0 65-14 9-4 10-13 2-10-5-16l-27-28q-8-8-18-4-13 3-25 3h-464q-37 0-63-26t-27-63v-464q0-37 27-63t63-27h464q37 0 63 27t26 63v70q0 7 5 12l36 36q8 8 20 4t11-16z m-54 411l161-160-375-375h-161v160z m248-73l-51-52-161 161 51 52q16 15 38 15t38-15l85-85q16-16 16-38t-16-38z" horiz-adv-x="1000" />

<glyph glyph-name="bell" unicode="&#xe809;" d="M509-96q0 8-9 8-33 0-57 24t-23 57q0 9-9 9t-9-9q0-41 29-70t69-28q9 0 9 9z m-372 160h726q-149 168-149 465 0 28-13 58t-39 58-67 45-95 17-95-17-67-45-39-58-13-58q0-297-149-465z m827 0q0-29-21-50t-50-21h-250q0-59-42-101t-101-42-101 42-42 101h-250q-29 0-50 21t-21 50q28 24 51 49t47 67 42 89 27 115 11 145q0 84 66 157t171 89q-5 10-5 21 0 23 16 38t38 16 38-16 16-38q0-11-5-21 106-16 171-89t66-157q0-78 11-145t28-115 41-89 48-67 50-49z" horiz-adv-x="1000" />

<glyph glyph-name="phone" unicode="&#xe80a;" d="M786 158q0-15-6-39t-12-38q-11-28-68-60-52-28-103-28-15 0-30 2t-32 7-26 8-31 11-28 10q-54 20-97 47-71 44-148 120t-120 148q-27 43-46 97-2 5-10 28t-12 31-8 26-7 32-2 29q0 52 29 104 31 57 59 68 14 6 38 12t39 6q8 0 12-2 10-3 30-42 6-11 16-31t20-35 17-30q2-2 10-14t12-20 4-16q0-11-16-27t-35-31-34-30-16-25q0-5 3-13t4-11 8-14 7-10q42-77 97-132t131-97q1 0 10-6t14-8 11-5 13-2q10 0 25 16t30 34 31 35 28 16q7 0 15-4t20-12 14-10q14-8 30-17t36-20 30-17q39-19 42-29 2-4 2-12z" horiz-adv-x="785.7" />

<glyph glyph-name="asterisk" unicode="&#xe80b;" d="M827 264q26-14 33-43t-7-55l-35-61q-15-26-44-33t-54 7l-149 85v-171q0-29-21-50t-50-22h-71q-29 0-51 22t-21 50v171l-148-85q-26-15-55-7t-43 33l-36 61q-14 26-7 55t34 43l148 86-148 86q-26 14-34 43t7 55l36 61q15 26 43 33t55-7l148-85v171q0 29 21 50t51 22h71q29 0 50-22t21-50v-171l149 85q26 15 54 7t44-33l35-61q15-26 7-55t-33-43l-148-86z" horiz-adv-x="928.6" />

<glyph glyph-name="basket" unicode="&#xe80c;" d="M357-7q0-29-21-50t-50-22-50 22-22 50 22 50 50 21 50-21 21-50z m500 0q0-29-21-50t-50-22-50 22-22 50 22 50 50 21 50-21 21-50z m72 607v-286q0-13-10-23t-22-12l-583-68q7-34 7-40 0-8-13-35h513q15 0 26-11t10-25-10-25-26-11h-571q-14 0-25 11t-11 25q0 6 5 18t9 20 12 22 8 17l-98 459h-114q-15 0-25 10t-11 25 11 26 25 10h143q9 0 16-3t10-9 8-14 4-14 3-17 3-14h670q14 0 25-11t11-25z" horiz-adv-x="928.6" />

<glyph glyph-name="location" unicode="&#xe80d;" d="M429 493q0 59-42 101t-101 42-101-42-42-101 42-101 101-42 101 42 42 101z m142 0q0-61-18-100l-203-432q-9-18-27-29t-37-11-38 11-26 29l-204 432q-18 39-18 100 0 118 84 202t202 84 202-84 83-202z" horiz-adv-x="571.4" />

<glyph glyph-name="key" unicode="&#xe80e;" d="M464 564q0 45-31 76t-76 31-76-31-31-76q0-23 11-46-23 11-47 11-44 0-76-32t-31-76 31-75 76-32 76 32 31 75q0 24-10 47 23-11 46-11 45 0 76 31t31 76z m475-393q0-9-27-36t-37-28q-5 0-16 9t-20 19-22 22-13 14l-54-53 123-123q15-16 15-38 0-23-21-45t-46-22q-22 0-37 16l-375 374q-98-73-204-73-91 0-148 57t-57 149q0 89 53 174t138 139 175 53q91 0 148-58t57-148q0-105-73-203l198-199 54 54q-2 2-14 14t-23 21-18 21-9 15q0 10 27 37t37 28q7 0 13-6 3-3 26-25t45-44 49-48 40-44 16-23z" horiz-adv-x="1000" />

<glyph glyph-name="clock" unicode="&#xe80f;" d="M500 546v-250q0-7-5-12t-13-5h-178q-8 0-13 5t-5 12v36q0 8 5 13t13 5h125v196q0 8 5 13t12 5h36q8 0 13-5t5-13z m232-196q0 83-41 152t-110 111-152 41-153-41-110-111-41-152 41-152 110-111 153-41 152 41 110 111 41 152z m125 0q0-117-57-215t-156-156-215-58-216 58-155 156-58 215 58 215 155 156 216 58 215-58 156-156 57-215z" horiz-adv-x="857.1" />

<glyph glyph-name="globe" unicode="&#xe810;" d="M429 779q116 0 215-58t156-156 57-215-57-215-156-156-215-58-216 58-155 156-58 215 58 215 155 156 216 58z m153-291q-2-1-6-5t-7-6q1 0 2 3t3 6 2 4q3 4 12 8 8 4 29 7 19 5 29-6-1 1 5 7t8 7q2 1 8 3t9 4l1 12q-7-1-10 4t-3 12q0-2-4-5 0 4-2 5t-7-1-5-1q-5 2-8 5t-5 9-2 8q-1 3-5 6t-5 6q-1 1-2 3t-1 4-3 3-3 1-4-3-4-5-2-3q-2 1-4 1t-2-1-3-1-3-2q-1-2-4-2t-5-1q8 3-1 6-5 2-9 2 6 2 5 6t-5 8h3q-1 2-5 5t-10 5-7 3q-5 3-19 5t-18 1q-3-4-3-6t2-8 2-7q1-3-3-7t-3-7q0-4 7-9t6-12q-2-4-9-9t-9-6q-3-5-1-11t6-9q1-1 1-2t-2-3-3-2-4-2l-1-1q-7-3-12 3t-7 15q-4 14-9 17-13 4-16-1-3 7-23 15-14 5-33 2 4 0 0 8-4 9-10 7 1 3 2 10t0 7q2 8 7 13 1 1 4 5t5 7 1 4q19-3 28 6 2 3 6 9t6 10q5 3 8 3t8-3 8-3q8-1 8 6t-4 11q7 0 2 10-2 4-5 5-6 2-15-3-4-2 2-4-1 0-6-6t-9-10-9 3q0 0-3 7t-5 8q-5 0-9-9 1 5-6 9t-14 4q11 7-4 15-4 3-12 3t-11-2q-2-4-3-7t3-4 6-3 6-2 5-2q8-6 5-8-1 0-5-2t-6-2-4-2q-1-3 0-8t-1-8q-3 3-5 10t-4 9q4-5-14-3l-5 0q-3 0-9-1t-12-1-7 5q-3 4 0 11 0 2 2 1-2 2-6 5t-6 5q-25-8-52-23 3 0 6 1 3 1 8 4t5 3q19 7 24 4l3 2q7-9 11-14-4 3-17 1-11-3-12-7 4-6 2-10-2 2-6 6t-8 6-8 3q-9 0-13-1-81-45-131-124 4-4 7-4 2-1 3-5t1-6 6 1q5-4 2-10 1 0 25-15 10-10 11-12 2-6-5-10-1 1-5 5t-5 2q-2-3 0-10t6-7q-4 0-5-9t-2-20 0-13l1-1q-2-6 3-19t12-11q-7-1 11-24 3-4 4-5 2-1 7-4t9-6 5-5q2-3 6-13t8-13q-2-3 5-11t6-13q-1 0-2-1t-1 0q2-4 9-8t8-7q1-2 1-6t2-6 4-1q2 11-13 35-8 13-9 16-2 2-4 8t-2 8q1 0 3 0t5-2 4-3 1-1q-1-4 1-10t7-10 10-11 6-7q4-4 8-11t0-8q5 0 11-5t10-11q3-5 4-15t3-13q1-4 5-8t7-5l9-5t7-3q3-2 10-6t12-7q6-2 9-2t8 1 8 2q8 1 16-8t12-12q20-10 30-6-1 0 1-4t4-9 5-8 3-5q3-3 10-8t10-8q4 2 4 5-1-5 4-11t10-6q8 2 8 18-17-8-27 10 0 0-2 3t-2 5-1 4 0 5 2 1q5 0 6 2t-1 7-2 8q-1 4-6 11t-7 8q-3-5-9-4t-9 5q0-1-1-3t-1-4q-7 0-8 0 1 2 1 10t2 13q1 2 3 6t5 9 2 7-3 5-9 1q-11 0-15-11-1-2-2-6t-2-6-5-4q-4-2-14-1t-13 3q-8 4-13 16t-5 20q0 6 1 15t2 14-3 14q2 1 5 5t5 6q2 1 3 1t3 0 2 1 1 3q0 1-2 2-1 1-2 1 4-1 16 1t15-1q9-6 12 1 0 1-1 6t0 7q3-15 16-5 2-1 9-3t9-2q2-1 4-3t3-3 3 0 5 4q5-8 7-13 6-23 10-25 4-2 6-1t3 5 0 8-1 7l-1 5v10l0 4q-8 2-10 7t0 10 9 10q0 1 4 2t9 4 7 4q12 11 8 20 4 0 6 5 0 0-2 2t-5 2-2 2q5 2 1 8 3 2 4 7t4 5q5-6 12-1 5 5 1 9 2 4 11 6t10 5q4-1 5 1t0 7 2 7q2 2 9 5t7 2l9 7q2 2 0 2 10-1 18 6 5 6-4 11 2 4-1 5t-9 4q2 0 7 0t5 1q9 5-3 9-10 2-24-7z m-91-490q115 21 195 106-1 2-7 2t-7 2q-10 4-13 5 1 4-1 7t-5 5-7 5-6 4q-1 1-4 3t-4 3-4 2-5 2-5-1l-2-1q-2 0-3-1t-3-2-2-1 0-2q-12 10-20 13-3 0-6 3t-6 4-6 0-6-3q-3-3-4-9t-1-7q-4 3 0 10t1 10q-1 3-6 2t-6-2-7-5-5-3-4-3-5-5q-2-2-4-6t-2-6q-1 2-7 3t-5 3q1-5 2-19t3-22q4-17-7-26-15-14-16-23-2-12 7-14 0-4-5-12t-4-12q0-3 2-9z" horiz-adv-x="857.1" />

<glyph glyph-name="star-empty" unicode="&#xe811;" d="M635 290l170 166-235 34-106 213-105-213-236-34 171-166-41-235 211 111 211-111z m294 199q0-12-15-27l-202-197 48-279q0-4 0-12 0-28-23-28-10 0-22 7l-251 132-250-132q-12-7-23-7-11 0-17 9t-6 19q0 4 1 12l48 279-203 197q-14 15-14 27 0 21 31 26l280 40 126 254q11 23 27 23t28-23l125-254 280-40q32-5 32-26z" horiz-adv-x="928.6" />

<glyph glyph-name="heart-empty" unicode="&#xe812;" d="M929 517q0 46-12 80t-31 55-46 33-52 18-55 4-62-14-62-36-48-40-34-34q-10-13-27-13t-27 13q-14 15-34 34t-48 40-62 36-62 14-55-4-52-18-46-33-31-55-12-80q0-93 105-198l324-312 324 312q105 105 105 198z m71 0q0-123-128-251l-347-335q-10-10-25-10t-25 10l-348 336q-5 5-15 15t-31 37-38 54-30 67-13 77q0 123 71 192t196 70q34 0 70-12t67-33 54-38 42-38q20 20 42 38t54 38 67 33 70 12q125 0 196-70t71-192z" horiz-adv-x="1000" />

<glyph glyph-name="link" unicode="&#xe813;" d="M813 171q0 23-16 38l-116 116q-16 16-38 16-24 0-40-18 1-1 10-10t12-12 9-11 7-14 2-15q0-23-16-38t-38-16q-8 0-15 2t-14 7-11 9-12 12-10 10q-19-17-19-40 0-23 16-38l115-116q15-15 38-15 22 0 38 15l82 81q16 16 16 37z m-393 394q0 22-15 38l-115 115q-16 16-38 16-22 0-38-15l-82-82q-16-15-16-37 0-22 16-38l116-116q15-15 38-15 23 0 40 17-2 2-11 11t-12 12-8 10-7 14-2 16q0 22 15 38t38 15q9 0 16-2t14-7 11-8 12-12 10-11q18 17 18 41z m500-394q0-66-48-113l-82-81q-46-47-113-47-68 0-114 48l-115 115q-46 47-46 114 0 68 49 116l-49 49q-48-49-116-49-67 0-114 47l-116 116q-47 47-47 114t47 113l82 82q47 46 114 46 67 0 114-47l115-116q46-46 46-113 0-69-49-117l49-49q48 49 116 49 67 0 114-47l116-116q47-47 47-114z" horiz-adv-x="928.6" />

<glyph glyph-name="cw" unicode="&#xe814;" d="M857 707v-250q0-14-10-25t-26-11h-250q-23 0-32 23-10 22 7 38l77 77q-82 77-194 77-58 0-111-23t-91-61-61-91-23-111 23-111 61-91 91-61 111-23q66 0 125 29t100 82q4 6 13 7 8 0 14-5l76-77q5-4 6-11t-5-13q-60-74-147-114t-182-41q-87 0-167 34t-136 92-92 137-34 166 34 166 92 137 136 92 167 34q82 0 158-31t137-88l72 72q17 18 39 8 22-9 22-33z" horiz-adv-x="857.1" />

<glyph glyph-name="lock" unicode="&#xe815;" d="M179 421h285v108q0 59-42 101t-101 41-101-41-41-101v-108z m464-53v-322q0-22-16-37t-38-16h-535q-23 0-38 16t-16 37v322q0 22 16 38t38 15h17v108q0 102 74 176t176 74 177-74 73-176v-108h18q23 0 38-15t16-38z" horiz-adv-x="642.9" />

<glyph glyph-name="block" unicode="&#xe816;" d="M732 352q0 90-48 164l-421-420q76-50 166-50 62 0 118 25t96 65 65 97 24 119z m-557-167l421 421q-75 50-167 50-83 0-153-40t-110-111-41-153q0-91 50-167z m682 167q0-88-34-168t-91-137-137-92-166-34-167 34-137 92-91 137-34 168 34 167 91 137 137 91 167 34 166-34 137-91 91-137 34-167z" horiz-adv-x="857.1" />

<glyph glyph-name="credit-card" unicode="&#xe817;" d="M982 779q37 0 63-27t26-63v-678q0-37-26-63t-63-27h-893q-36 0-63 27t-26 63v678q0 37 26 63t63 27h893z m-893-72q-7 0-12-5t-6-13v-125h929v125q0 8-5 13t-13 5h-893z m893-714q7 0 13 5t5 13v339h-929v-339q0-7 6-13t12-5h893z m-839 71v72h143v-72h-143z m214 0v72h214v-72h-214z" horiz-adv-x="1071.4" />

<glyph glyph-name="menu" unicode="&#xe818;" d="M857 100v-71q0-15-10-25t-26-11h-785q-15 0-25 11t-11 25v71q0 15 11 25t25 11h785q15 0 26-11t10-25z m0 286v-72q0-14-10-25t-26-10h-785q-15 0-25 10t-11 25v72q0 14 11 25t25 10h785q15 0 26-10t10-25z m0 285v-71q0-14-10-25t-26-11h-785q-15 0-25 11t-11 25v71q0 15 11 26t25 10h785q15 0 26-10t10-26z" horiz-adv-x="857.1" />

<glyph glyph-name="squares" unicode="&#xe819;" d="M311 504l489 0c36 0 65-30 65-65l0-404c0-35-29-65-65-65l-489 0c-35 0-65 30-65 65l0 404c0 35 30 65 65 65z m454-94l-419 0 0-346 419 0 0 346z m-146 181l-101 0 0 44-417 0 0-336 58 0 0-95-93 0c-36 0-66 30-66 65l0 395c0 36 30 66 66 66l488 0c36 0 65-30 65-66l0-73z" horiz-adv-x="865" />

<glyph glyph-name="users" unicode="&#xe81a;" d="M331 350q-90-3-148-71h-75q-45 0-77 22t-31 66q0 197 69 197 4 0 25-11t54-24 66-12q38 0 75 13-3-21-3-37 0-78 45-143z m598-356q0-66-41-105t-108-39h-488q-68 0-108 39t-41 105q0 30 2 58t8 61 14 61 24 54 35 45 48 30 62 11q6 0 24-12t41-26 59-27 76-12 75 12 60 27 41 26 24 12q34 0 62-11t47-30 35-45 24-54 15-61 8-61 2-58z m-572 713q0-59-42-101t-101-42-101 42-42 101 42 101 101 42 101-42 42-101z m393-214q0-89-63-152t-151-62-152 62-63 152 63 151 152 63 151-63 63-151z m321-126q0-43-31-66t-77-22h-75q-57 68-147 71 45 65 45 143 0 16-3 37 37-13 74-13 33 0 67 12t54 24 24 11q69 0 69-197z m-71 340q0-59-42-101t-101-42-101 42-42 101 42 101 101 42 101-42 42-101z" horiz-adv-x="1071.4" />

<glyph glyph-name="link-1" unicode="&#xe81b;" d="M294 116q14 14 34 14t36-14q32-34 0-70l-42-40q-56-56-132-56-78 0-134 56t-56 132q0 78 56 134l148 148q70 68 144 77t128-43q16-16 16-36t-16-36q-36-32-70 0-50 48-132-34l-148-146q-26-26-26-64t26-62q26-26 63-26t63 26z m450 574q56-56 56-132 0-78-56-134l-158-158q-74-72-150-72-62 0-112 50-14 14-14 34t14 36q14 14 35 14t35-14q50-48 122 24l158 156q28 28 28 64 0 38-28 62-24 26-56 31t-60-21l-50-50q-16-14-36-14t-34 14q-34 34 0 70l50 50q54 54 127 51t129-61z" horiz-adv-x="800" />

<glyph glyph-name="check-empty" unicode="&#xf096;" d="M625 707h-464q-37 0-63-26t-27-63v-464q0-37 27-63t63-27h464q37 0 63 27t26 63v464q0 37-26 63t-63 26z m161-89v-464q0-67-47-114t-114-47h-464q-67 0-114 47t-47 114v464q0 66 47 113t114 48h464q66 0 114-48t47-113z" horiz-adv-x="785.7" />

<glyph glyph-name="docs" unicode="&#xf0c5;" d="M946 636q23 0 38-16t16-38v-678q0-23-16-38t-38-16h-535q-23 0-38 16t-16 38v160h-303q-23 0-38 16t-16 38v375q0 22 11 49t27 42l228 228q15 16 42 27t49 11h232q23 0 38-16t16-38v-183q38 23 71 23h232z m-303-119l-167-167h167v167z m-357 214l-167-167h167v167z m109-361l176 176v233h-214v-233q0-22-15-37t-38-16h-233v-357h286v143q0 22 11 49t27 42z m534-449v643h-215v-232q0-22-15-38t-38-15h-232v-358h500z" horiz-adv-x="1000" />

<glyph glyph-name="table" unicode="&#xf0ce;" d="M286 82v107q0 8-5 13t-13 5h-179q-7 0-12-5t-6-13v-107q0-8 6-13t12-5h179q8 0 13 5t5 13z m0 214v108q0 7-5 12t-13 5h-179q-7 0-12-5t-6-12v-108q0-7 6-12t12-5h179q8 0 13 5t5 12z m285-214v107q0 8-5 13t-12 5h-179q-8 0-13-5t-5-13v-107q0-8 5-13t13-5h179q7 0 12 5t5 13z m-285 429v107q0 8-5 13t-13 5h-179q-7 0-12-5t-6-13v-107q0-8 6-13t12-5h179q8 0 13 5t5 13z m285-215v108q0 7-5 12t-12 5h-179q-8 0-13-5t-5-12v-108q0-7 5-12t13-5h179q7 0 12 5t5 12z m286-214v107q0 8-5 13t-13 5h-178q-8 0-13-5t-5-13v-107q0-8 5-13t13-5h178q8 0 13 5t5 13z m-286 429v107q0 8-5 13t-12 5h-179q-8 0-13-5t-5-13v-107q0-8 5-13t13-5h179q7 0 12 5t5 13z m286-215v108q0 7-5 12t-13 5h-178q-8 0-13-5t-5-12v-108q0-7 5-12t13-5h178q8 0 13 5t5 12z m0 215v107q0 8-5 13t-13 5h-178q-8 0-13-5t-5-13v-107q0-8 5-13t13-5h178q8 0 13 5t5 13z m72 178v-607q0-37-27-63t-63-26h-750q-36 0-63 26t-26 63v607q0 37 26 63t63 27h750q37 0 63-27t27-63z" horiz-adv-x="928.6" />

<glyph glyph-name="magic" unicode="&#xf0d0;" d="M664 526l164 163-60 60-164-163z m250 163q0-15-10-25l-718-718q-10-10-25-10t-25 10l-111 111q-10 10-10 25t10 25l718 718q10 10 25 10t25-10l111-111q10-10 10-25z m-754 106l54-16-54-17-17-55-17 55-55 17 55 16 17 55z m195-90l109-34-109-33-34-109-33 109-109 33 109 34 33 109z m519-267l55-17-55-16-17-55-17 55-54 16 54 17 17 55z m-357 357l54-16-54-17-17-55-17 55-54 17 54 16 17 55z" horiz-adv-x="928.6" />

<glyph glyph-name="upload-cloud" unicode="&#xf0ee;" d="M714 368q0 8-5 13l-196 196q-5 5-13 5t-13-5l-196-196q-5-6-5-13 0-8 5-13t13-5h125v-196q0-8 5-13t12-5h108q7 0 12 5t5 13v196h125q8 0 13 5t5 13z m357-161q0-89-62-151t-152-63h-607q-103 0-177 73t-73 177q0 72 39 134t105 92q-1 17-1 24 0 118 84 202t202 84q87 0 159-49t105-129q40 35 93 35 59 0 101-42t42-101q0-43-23-77 72-17 119-76t46-133z" horiz-adv-x="1071.4" />

<glyph glyph-name="radio-empty" unicode="&#xf10c;" d="M429 654q-83 0-153-41t-110-111-41-152 41-152 110-111 153-41 152 41 110 111 41 152-41 152-110 111-152 41z m428-304q0-117-57-215t-156-156-215-58-216 58-155 156-58 215 58 215 155 156 216 58 215-58 156-156 57-215z" horiz-adv-x="857.1" />

<glyph glyph-name="smile" unicode="&#xf118;" d="M633 250q-21-67-77-109t-127-41-128 41-77 109q-4 14 3 27t21 18q14 4 27-2t17-22q14-44 52-72t85-28 84 28 52 72q4 15 18 22t27 2 21-18 2-27z m-276 243q0-30-21-51t-50-21-51 21-21 51 21 50 51 21 50-21 21-50z m286 0q0-30-21-51t-51-21-50 21-21 51 21 50 50 21 51-21 21-50z m143-143q0 73-29 139t-76 114-114 76-138 28-139-28-114-76-76-114-29-139 29-139 76-113 114-77 139-28 138 28 114 77 76 113 29 139z m71 0q0-117-57-215t-156-156-215-58-216 58-155 156-58 215 58 215 155 156 216 58 215-58 156-156 57-215z" horiz-adv-x="857.1" />

<glyph glyph-name="html" unicode="&#xf121;" d="M344 69l-28-28q-5-5-12-5t-13 5l-260 261q-6 5-6 12t6 13l260 260q5 6 13 6t12-6l28-28q6-5 6-13t-6-12l-219-220 219-219q6-6 6-13t-6-13z m330 596l-208-721q-2-7-9-11t-13-1l-34 9q-8 3-11 9t-2 14l209 720q2 8 8 11t13 2l35-10q7-2 11-9t1-13z m367-363l-260-261q-6-5-13-5t-13 5l-28 28q-5 6-5 13t5 13l219 219-219 220q-5 5-5 12t5 13l28 28q6 6 13 6t13-6l260-260q5-5 5-13t-5-12z" horiz-adv-x="1071.4" />

<glyph glyph-name="calendar-empty" unicode="&#xf133;" d="M71-79h786v572h-786v-572z m215 679v161q0 8-5 13t-13 5h-36q-8 0-13-5t-5-13v-161q0-8 5-13t13-5h36q8 0 13 5t5 13z m428 0v161q0 8-5 13t-13 5h-35q-8 0-13-5t-5-13v-161q0-8 5-13t13-5h35q8 0 13 5t5 13z m215 36v-715q0-29-22-50t-50-21h-786q-29 0-50 21t-21 50v715q0 29 21 50t50 21h72v54q0 37 26 63t63 26h36q37 0 63-26t26-63v-54h214v54q0 37 27 63t63 26h35q37 0 64-26t26-63v-54h71q29 0 50-21t22-50z" horiz-adv-x="928.6" />

<glyph glyph-name="dollar" unicode="&#xf155;" d="M546 189q0-86-56-147t-144-77v-97q0-8-5-13t-13-5h-75q-7 0-13 5t-5 13v97q-37 5-71 18t-57 25-41 26-26 21-10 10q-9 12-1 23l58 76q3 5 12 6 9 1 14-5l1-1q63-55 135-70 21-4 42-4 45 0 79 24t35 68q0 16-9 30t-18 23-33 21-37 18-45 18q-21 9-34 14t-34 15-35 17-32 20-29 24-25 27-20 32-11 37-5 44q0 77 55 135t142 75v100q0 7 5 13t13 5h75q8 0 13-5t5-13v-98q32-3 62-13t48-19 36-20 21-17 9-7q9-11 3-22l-46-81q-4-9-12-9-8-2-15 4-2 2-9 7t-21 14-33 18-42 15-47 6q-53 0-87-24t-33-62q0-14 4-27t17-23 22-18 31-18 34-15 39-15q30-11 45-17t43-20 42-24 34-28 30-35 18-43 7-52z" horiz-adv-x="571.4" />

<glyph glyph-name="radio" unicode="&#xf192;" d="M571 350q0-59-41-101t-101-42-101 42-42 101 42 101 101 42 101-42 41-101z m-142 304q-83 0-153-41t-110-111-41-152 41-152 110-111 153-41 152 41 110 111 41 152-41 152-110 111-152 41z m428-304q0-117-57-215t-156-156-215-58-216 58-155 156-58 215 58 215 155 156 216 58 215-58 156-156 57-215z" horiz-adv-x="857.1" />

<glyph glyph-name="cube" unicode="&#xf1b2;" d="M500-59l357 195v355l-357-130v-420z m-36 483l390 141-390 142-389-142z m465 140v-428q0-20-10-37t-28-26l-393-214q-15-9-34-9t-34 9l-393 214q-17 10-27 26t-10 37v428q0 23 13 41t34 26l393 143q12 5 24 5t25-5l393-143q21-8 34-26t13-41z" horiz-adv-x="1000" />

<glyph glyph-name="cubes" unicode="&#xf1b3;" d="M357-61l214 107v176l-214-92v-191z m-36 254l226 96-226 97-225-97z m608-254l214 107v176l-214-92v-191z m-36 254l225 96-225 97-226-97z m-250 163l214 92v149l-214-92v-149z m-36 212l246 105-246 106-246-106z m607-289v-233q0-20-10-37t-29-26l-250-125q-14-8-32-8t-32 8l-250 125q-2 1-4 2-1-1-4-2l-250-125q-14-8-32-8t-31 8l-250 125q-19 9-29 26t-11 37v233q0 21 12 39t32 26l242 104v223q0 22 12 40t31 26l250 107q13 6 28 6t28-6l250-107q20-9 32-26t12-40v-223l242-104q20-8 32-26t11-39z" horiz-adv-x="1285.7" />

<glyph glyph-name="paragraph" unicode="&#xf1dd;" d="M713 745v-41q0-16-10-34t-24-18q-28 0-30-1-14-3-18-17-1-6-1-36v-643q0-14-11-24t-24-10h-60q-14 0-24 10t-10 24v680h-80v-680q0-14-9-24t-25-10h-60q-14 0-24 10t-10 24v277q-82 7-137 33-70 33-107 100-36 65-36 145 0 92 50 159 49 66 116 89 62 21 233 21h267q14 0 24-10t10-24z" horiz-adv-x="714.3" />

<glyph glyph-name="newspaper" unicode="&#xf1ea;" d="M571 564h-214v-214h214v214z m72-357v-71h-357v71h357z m0 429v-357h-357v357h357z m357-429v-71h-286v71h286z m0 143v-71h-286v71h286z m0 143v-72h-286v72h286z m0 143v-72h-286v72h286z m-857-536v536h-72v-536q0-14 11-25t25-11 25 11 11 25z m928 0v607h-857v-607q0-18-6-36h828q14 0 25 11t10 25z m72 679v-679q0-45-31-76t-76-31h-929q-44 0-76 31t-31 76v607h143v72h1000z" horiz-adv-x="1142.9" />

<glyph glyph-name="toggle-on" unicode="&#xf205;" d="M0 350q0 73 29 139t76 114 114 76 138 28h429q72 0 138-28t114-76 76-114 29-139-29-139-76-113-114-77-138-28h-429q-72 0-138 28t-114 77-76 113-29 139z m786-286q58 0 111 23t91 61 61 91 22 111-22 111-61 91-91 61-111 23-111-23-91-61-61-91-23-111 23-111 61-91 91-61 111-23z" horiz-adv-x="1142.9" />

<glyph glyph-name="cart-plus" unicode="&#xf217;" d="M679 457q0 15-11 25t-25 11h-72v71q0 15-10 25t-25 11-25-11-11-25v-71h-71q-15 0-25-11t-11-25 11-25 25-11h71v-71q0-14 11-25t25-11 25 11 10 25v71h72q14 0 25 11t11 25z m-322-464q0-30-21-51t-50-21-51 21-21 51 21 50 51 21 50-21 21-50z m500 0q0-30-21-51t-50-21-51 21-21 51 21 50 51 21 50-21 21-50z m72 607v-286q0-13-9-23t-23-12l-583-68q1-4 3-12t3-15 1-13q0-8-13-35h513q15 0 26-11t10-25-10-25-26-11h-571q-14 0-25 11t-11 25q0 8 6 22t17 33 11 22l-98 459h-114q-15 0-25 10t-11 25 11 26 25 10h143q9 0 16-3t11-9 7-14 4-15 3-16 3-14h670q14 0 25-11t11-25z" horiz-adv-x="928.6" />

<glyph glyph-name="cart-arrow-down" unicode="&#xf218;" d="M714 457q0 15-10 25t-25 11-25-11l-83-81v163q0 15-10 25t-25 11-25-11-11-25v-163l-82 81q-11 11-25 11t-25-11-11-25 11-25l143-143q10-10 25-10t25 10l143 143q10 11 10 25z m-357-464q0-30-21-51t-50-21-51 21-21 51 21 50 51 21 50-21 21-50z m500 0q0-30-21-51t-50-21-51 21-21 51 21 50 51 21 50-21 21-50z m72 607v-286q0-13-9-23t-23-12l-583-68q1-4 3-12t3-15 1-13q0-8-13-35h513q15 0 26-11t10-25-10-25-26-11h-571q-14 0-25 11t-11 25q0 8 6 22t17 33 11 22l-98 459h-114q-15 0-25 10t-11 25 11 26 25 10h143q9 0 16-3t11-9 7-14 4-15 3-16 3-14h670q14 0 25-11t11-25z" horiz-adv-x="928.6" />

<glyph glyph-name="input" unicode="&#xf246;" d="M464 779q-178 0-178-125v-233h71v-71h-71v-304q0-125 178-125h36v-71h-36q-151 0-214 81-62-81-214-81h-36v71h36q178 0 178 125v304h-71v71h71v233q0 125-178 125h-36v71h36q152 0 214-81 63 81 214 81h36v-71h-36z" horiz-adv-x="571.4" />

<glyph glyph-name="credit-card-alt" unicode="&#xf283;" d="M0 11v339h1286v-339q0-37-26-63t-64-27h-1107q-36 0-63 27t-26 63z m357 125v-72h214v72h-214z m-214 0v-72h143v72h-143z m1053 643q37 0 64-27t26-63v-125h-1286v125q0 37 26 63t63 27h1107z" horiz-adv-x="1285.7" />

<glyph glyph-name="hashtag" unicode="&#xf292;" d="M553 279l36 142h-142l-36-142h142z m429 281l-32-125q-4-14-17-14h-182l-36-142h173q9 0 14-7 6-8 4-16l-32-125q-2-13-17-13h-182l-45-183q-4-14-18-14h-125q-9 0-14 7-5 7-4 16l44 174h-142l-45-183q-4-14-17-14h-126q-8 0-14 7-5 7-3 16l43 174h-173q-9 0-14 7-5 6-4 15l32 125q4 14 17 14h182l36 142h-173q-9 0-14 7-6 8-4 16l32 125q2 13 17 13h182l46 183q3 14 17 14h125q9 0 14-7 5-7 4-16l-44-174h142l45 183q4 14 18 14h125q8 0 14-7 5-7 3-16l-43-174h173q9 0 14-7 5-6 4-15z" horiz-adv-x="1000" />

<glyph glyph-name="envelope-open-o" unicode="&#xf2b7;" d="M823 341l21-29q5-6 4-13t-6-11q-24-19-71-55t-82-63-37-29q-22-18-34-27t-33-23-43-20-41-7h-2q-20 0-41 7t-42 20-34 23-34 27q-3 2-36 28t-80 62-68 53q-7 4-7 11t3 13l21 29q4 6 12 7t14-3q52-41 170-132 3-2 25-20t33-26 32-18 32-9h2q13 0 32 9t32 18 34 26 24 20q144 110 174 135 7 4 14 4t12-7z m106-402v518q-51 47-89 78-51 41-217 169-2 2-24 20t-34 27-31 18-33 10h-2q-13 0-32-10t-32-18-34-27-24-20q-120-92-176-137t-72-58-46-41q-8-7-12-11v-518q0-7 6-12t12-6h822q7 0 12 6t6 12z m71 518v-518q0-37-26-63t-63-26h-822q-36 0-63 26t-26 63v518q0 31 23 53 69 63 195 162t130 101q20 17 33 27t35 23 42 20 41 7h2q20 0 41-7t43-20 34-23 33-27q24-20 87-68t126-99 112-96q23-22 23-53z" horiz-adv-x="1000" />

<glyph glyph-name="user-circle" unicode="&#xf2bd;" d="M850 103q-12 86-49 144t-103 66q-37-42-89-65t-109-23-109 23-89 65q-66-9-103-66t-49-144q59-84 151-133t199-49 199 49 151 133z m-136 390q0 89-62 151t-152 63-151-63-63-151 63-152 151-62 152 62 62 152z m286-143q0-102-40-194t-106-160-159-106-195-40q-102 0-194 40t-160 106-106 160-40 194 40 194 106 160 160 106 194 40 194-40 160-106 106-160 40-194z" horiz-adv-x="1000" />

<glyph glyph-name="user-o" unicode="&#xf2c0;" d="M670 413q26-8 50-22t50-40 44-65 31-96 12-132q0-86-56-147t-134-61h-477q-78 0-134 61t-56 147q0 73 12 132t31 96 44 65 50 40 50 22q-44 69-44 151 0 58 23 111t61 91 91 61 111 23 110-23 92-61 61-91 22-111q0-82-44-151z m-241 366q-89 0-152-63t-63-152 63-151 152-63 151 63 63 151-63 152-151 63z m238-858q49 0 84 40t35 97q0 134-44 211t-126 80q-81-70-187-70t-188 70q-82-3-126-80t-44-211q0-57 35-97t84-40h477z" horiz-adv-x="857.1" />

<glyph glyph-name="id-card-o" unicode="&#xf2c3;" d="M500 174q0-31-18-52t-42-22h-237q-25 0-43 22t-17 52q0 30 4 56t14 50 28 38 45 14q36-36 87-36t88 36q26 0 45-14t28-38 14-50 4-56z m-71 247q0-44-32-75t-76-32-75 32-32 75 32 76 75 32 76-32 32-76z m571-232v-35q0-8-5-13t-13-5h-393q-7 0-12 5t-6 13v35q0 8 6 13t12 5h393q8 0 13-5t5-13z m-214 143v-36q0-7-5-12t-13-5h-179q-7 0-12 5t-6 12v36q0 8 6 13t12 5h179q8 0 13-5t5-13z m214 0v-36q0-7-5-12t-13-5h-107q-8 0-13 5t-5 12v36q0 8 5 13t13 5h107q8 0 13-5t5-13z m0 143v-36q0-7-5-12t-13-6h-393q-7 0-12 6t-6 12v36q0 8 6 13t12 5h393q8 0 13-5t5-13z m71-464v625h-1000v-625q0-7 6-13t12-5h965q7 0 12 5t5 13z m72 678v-678q0-37-26-63t-63-27h-965q-36 0-63 27t-26 63v678q0 37 26 63t63 27h965q36 0 63-27t26-63z" horiz-adv-x="1142.9" />

<glyph glyph-name="spread" unicode="&#xf527;" d="M0 493q0 57 41 98t98 41q58 0 99-41t40-98q0-40-21-73l282-281q19 12 39 17v388q-46 12-76 49t-30 87q0 57 41 98t99 40q57 0 98-40t40-98q0-49-30-87t-76-49v-388q20-5 39-17l282 281q-21 34-21 73 0 58 41 98t98 41 98-41 41-98-41-99-98-41q-37 0-72 22l-282-282q21-33 21-72 0-58-40-99t-98-41q-59 0-99 41t-41 99q0 39 21 72l-282 282q-35-22-72-22-57 0-98 41t-41 99z" horiz-adv-x="1222.7" />
</font>
</defs>
</svg>