<svg xmlns="http://www.w3.org/2000/svg" viewBox="0 0 83.37 81.97">
  <defs>
    <style>
      .cls-1 {
        fill: #333;
      }

      .cls-2 {
        fill: #2d2d2d;
      }

      .cls-3 {
        fill: #c62026;
      }

      .cls-4, .cls-8 {
        fill: #1b1b1b;
      }

      .cls-5 {
        fill: #921a1d;
      }

      .cls-6 {
        fill: #fff;
      }

      .cls-7 {
        fill: none;
        stroke: #1b1b1b;
        stroke-miterlimit: 10;
      }

      .cls-8 {
        opacity: 0.97;
      }
    </style>
  </defs>
  <title>Asset 1</title>
  <g id="Layer_2" data-name="Layer 2">
    <g id="Layer_2-2" data-name="Layer 2">
      <g>
        <polygon class="cls-1" points="51.08 51.99 51.08 81.97 56.86 81.97 58.23 50.34 51.08 51.99"/>
        <g>
          <path class="cls-2" d="M25.48,32.91l0,16.19V33.42S25.49,33.24,25.48,32.91Z"/>
          <polygon class="cls-2" points="25.48 31.49 25.48 31.49 25.48 31.49 25.48 31.49"/>
          <path class="cls-3" d="M25.48,32.91V31.49C25.46,32.09,25.47,32.58,25.48,32.91Z"/>
          <path class="cls-3" d="M69.37,14c-18.43,1.65-22.82,2.42-35.21,3.44-7.49,1.69-8.59,10.16-8.69,14,0,0,.45-13.48,9.79-13.48,12.24,2.61,13.2,19.64,13.2,21.73V58.31L30,65.05s-19,6.46-29.86-2.82l0-.05a6,6,0,0,0,.32.94c5.23,11.69,32.46,3.44,32.46,3.44L82,47.86l1.24-15.13S85.47,15.68,69.37,14Z"/>
          <path class="cls-1" d="M30,65.05l18.43-6.74V39.75c0-2.09-1-19.12-13.2-21.73-9.34,0-9.79,13.44-9.79,13.48h0v1.42c0,.33,0,.51,0,.51V49.1S-2.28,52.46.15,62.18l0,.05C11.06,71.52,30,65.05,30,65.05Z"/>
        </g>
        <path class="cls-4" d="M26.19,49.1l22.28,9.21,0-19.68S47.51,20.22,35.27,18c6.49,9.35,4.94,28.18,2.13,28.76Z"/>
        <polygon class="cls-5" points="53.28 0 61.54 0 61.54 10.87 56.03 10.87 54.93 44.42 53.28 44.42 53.28 0"/>
        <path class="cls-6" d="M16.7,38.16"/>
        <polygon class="cls-6" points="13.95 33.7 16.7 53.77 46.41 46.62 41.76 29.16 13.95 33.7"/>
        <polygon class="cls-6" points="15.33 35.07 19.73 54.46 45.45 47.72 40.63 30.39 15.94 34.96 15.33 35.07"/>
        <polygon class="cls-6" points="16.7 38.16 24.23 56.94 45.45 50.34 39.65 32.2 16.7 38.16"/>
        <polygon class="cls-4" points="22.91 53.63 16.7 38.16 22.35 53.77 22.91 53.63"/>
        <polygon class="cls-4" points="17.04 38.08 43.11 32.2 43.11 31.84 17.04 38.08"/>
        <path class="cls-6" d="M19,53.22"/>
        <polygon class="cls-4" points="19.42 53.12 15.33 35.07 19.02 53.22 19.42 53.12"/>
        <polygon class="cls-4" points="41.32 30.05 41.39 30.39 15.94 34.96 41.32 30.05"/>
        <polyline class="cls-7" points="16.29 50.95 13.95 33.84 32.43 30.59"/>
        <path class="cls-8" d="M38,52.54l10.45,5.78,0-19.68S47.51,20.22,35.27,18C41.76,27.37,38,52.54,38,52.54Z"/>
      </g>
    </g>
  </g>
</svg>
